start: equ 00004010h
loop: equ 00004067h
tabla_datos: equ 00004071h
recorre_secuencia_datos: equ 000040B9h
resetea: equ 000040DFh
incrementa: equ 000040E0h
vuelca_a_vram: equ 000040E2h
lop: equ 000040EAh
datos_tiles_0: equ 000040FCh
datos_tiles_8: equ 00004104h
datos_tiles_16: equ 0000410Ch
datos_tiles_24: equ 00004114h
datos_color_tiles: equ 0000411Ch
secuencia_datos: equ 00004120h
contador_secuencia: equ 0000C000h
buffer_canal_0: equ 0000C001h
